bzip2-1.0.8p0
cvsps-2.1p2
gettext-runtime-0.21p1
ifstat-1.1p5
libiconv-1.16p0
libidn2-2.3.0p0
libpsl-0.21.1
libunistring-0.9.7
p5-Curses-1.32p1
p5-Curses-UI-0.9609p1
p5-CursesWidgets-1.997p4
p5-Mail-Tools-2.21p0
p5-Proc-Daemon-0.23p0
p5-Proc-PID-File-1.29p0
p5-Proc-ProcessTable-0.59
p5-Time-TimeDate-2.33
pcre2-10.36
pktstat-1.8.4p5
pv-1.6.6
quirks-3.633
readline-7.0p0
wget-1.20.3p3
xz-5.2.5
